{
	"count": 49,
	"next": "https://dev.codeleap.co.uk/careers/?limit=10&offset=10",
	"previous": null,
	"results": [
		{
			"id": 7629,
			"username": "User1",
			"created_datetime": "2023-04-19T14:45:50.550855Z",
			"title": "Test 4",
			"content": "Random"
		},
		{
			"id": 7626,
			"username": "amaral",
			"created_datetime": "2023-04-19T14:40:41.226039Z",
			"title": "asd",
			"content": "adad"
		},
		{
			"id": 7625,
			"username": "Rhett",
			"created_datetime": "2023-04-19T14:34:05.728272Z",
			"title": "Jfjfjf",
			"content": "Jcjgjfjfgj"
		},
		{
			"id": 7624,
			"username": "Rhett",
			"created_datetime": "2023-04-19T14:32:53.792563Z",
			"title": "Hcjcjc",
			"content": "Vkkvkvkvvkkv"
		},
		{
			"id": 7623,
			"username": "Rhett",
			"created_datetime": "2023-04-19T14:31:29.050223Z",
			"title": "Hcjcjc",
			"content": "Vkkvkvkvvkkv"
		},
		{
			"id": 7622,
			"username": "Rhett",
			"created_datetime": "2023-04-19T14:30:00.157587Z",
			"title": "Jsjsjsjs",
			"content": "Snjsjsjsjs"
		},
		{
			"id": 7621,
			"username": "Rhett",
			"created_datetime": "2023-04-19T14:28:09.473644Z",
			"title": "Jsjsjsjs",
			"content": "Snjsjsjsjs"
		},
		{
			"id": 7620,
			"username": "Rhett",
			"created_datetime": "2023-04-19T14:26:11.648647Z",
			"title": "Hfjffj",
			"content": "Jsjsjsjsjs"
		},
		{
			"id": 7618,
			"username": "Marcondes",
			"created_datetime": "2023-04-19T14:23:33.054072Z",
			"title": "user",
			"content": "lorem asiourhasiruahsiouahtopsira"
		},
		{
			"id": 7617,
			"username": "Marcondes",
			"created_datetime": "2023-04-19T14:23:28.586839Z",
			"title": "sassssssssssssssssssssss",
			"content": "asdasafsagsedtsady"
		}
	]
}